source,feed,location,type
army-technology,https://www.army-technology.com/feed/,United Kingdom,Army
feedburner,http://feeds.feedburner.com/rss/category/arm-home,United States,Army
feedburner,http://feeds.feedburner.com/rss/category/def-land,"Washington, District Of Columbia, United States",Army
army,https://www.army.mil/rss/static/85.xml,"Washington, District Of Columbia, United States",Army
duffelblog,http://www.duffelblog.com/army/feed/,United States,Army
army,https://www.army.gov.au/rss.xml,"Canberra, Australian Capital Territory, Australia",Army
reddit,https://www.reddit.com/r/army/.rss?format=xml,"San Francisco, California, United States",Army
hawaiiarmyweekly,http://www.hawaiiarmyweekly.com/feed/,United States,Army
ausa,https://www.ausa.org/news/rss.xml,"Arlington, Virginia, United States",Army
army,http://www.army.mil.ng/feed/,Nigeria,Army
lebarmy,https://www.lebarmy.gov.lb/en/rss.xml,Beirut - Lebanon,Army
anthonyjrichard,https://anthonyjrichard.com/feed,"Tacoma, Washington, United States",Army
nytimes,https://www.nytimes.com/svc/collections/v1/publish/http://www.nytimes.com/topic/organization/us-army/rss.xml,"New York City, New York, United States",Army
theguardian,https://www.theguardian.com/uk/british-army/rss,"London, England, United Kingdom",Army
thesun,https://www.thesun.co.uk/topic/army/feed/,"London, England, United Kingdom",Army
newsinfo,http://newsinfo.inquirer.net/tag/philippine-army/feed,"Makati, National Capital Region, Philippines",Army
