source,feed,location,type
militarywatchmagazine,https://militarywatchmagazine.com/feed/,United States,Military
reddit,https://www.reddit.com/r/Military/.rss?format=xml,"San Francisco, California, United States",Military
defence-blog,http://defence-blog.com/feed,United States,Military
gov,https://www.gov.uk/government/organisations/ministry-of-defence.atom,United Kingdom,Military
dmna,https://dmna.ny.gov/rss/,"New York City, New York, United States",Military
navy,https://www.navy.mil/xml/rssTopStories.asp,United States,Military
tinker,https://www.tinker.af.mil/DesktopModules/ArticleCS/RSS.ashx?ContentType=1&Site=147&max=20/feed,"Oklahoma, United States",Military
taskandpurpose,https://taskandpurpose.com/feeds/feed.rss,United States,Military
janes,http://www.janes.com/rss,"Surrey, North Dakota, United States",Military
blog,https://blog.usni.org/feed,"Annapolis, Maryland, United States",Military
popsci,https://www.popsci.com/multi-blog/42/rss.xml?dom=psc&loc=featrow&lnk=rss,"New York, United States",Military
asp,http://asp.tacticalgear.com/feed,"Chesterfield, Missouri, United States",Military
warontherocks,https://warontherocks.com/feed/,"Washington, District Of Columbia, United States",Military
dailypress,https://www.dailypress.com/news/military/hrmilitary-blog/rss2.0.xml,"Newport News, Virginia, United States",Military
army-technology,https://www.army-technology.com/feed/,United Kingdom,Military
rcaf-arc,http://rcaf-arc.forces.gc.ca/en/news/article-rss.page,Canada,Military
soldiersystems,http://soldiersystems.net/feed/,Global,Military
bulgarianmilitary,https://bulgarianmilitary.com/feed/,"Panagyurishte, Pazardzhik, Bulgaria",Military
english,http://english.chinamil.com.cn/rss.xml,China,Military
army,https://www.army.gov.au/rss.xml,"Canberra, Australian Capital Territory, Australia",Military
feedburner,http://feeds.feedburner.com/duffelblog,United States,Military
coffeeordie,https://coffeeordie.com/feed/,"San Antonio, Texas, United States",Military
cavok,http://www.cavok.com.br/blog/feed/,Brazil,Military
defensie,https://feeds.defensie.nl/english/news.rss,"Den Haag, Zuid-Holland, Netherlands",Military
feedburner,http://feeds.feedburner.com/strategy_bridge,"Washington, District Of Columbia, United States",Military
militaryconnection,http://militaryconnection.com/blog/feed/,"Saint Louis, Missouri, United States",Military
usmilitary,https://usmilitary.com/feed/,United States,Military
fromthegreennotebook,https://fromthegreennotebook.com/feed/,"Colorado Springs, Colorado, United States",Military
thinkdefence,http://www.thinkdefence.co.uk/category/blog/feed/,United Kingdom,Military
dodreads,https://www.dodreads.com/feed/,"San Diego, California, United States",Military
russianmilitaryanalysis,https://russianmilitaryanalysis.wordpress.com/feed/,Russian Federation,Military
commemorativeairforce,https://commemorativeairforce.org/rss?format=feed&type=rss,United States,Military
inmilitary,https://inmilitary.com/feed/,United States,Military
welcomehomeblog,https://welcomehomeblog.com/feed/,United States,Military
angrystaffofficer,https://angrystaffofficer.com/feed/,Global,Military
turkishnavy,https://turkishnavy.net/feed/,Turkey,Military
groundedcuriosity,http://groundedcuriosity.com/feed/,Australia,Military
feedburner,http://feeds.feedburner.com/caaflog,United States,Military
eaglespeak,http://www.eaglespeak.us/feeds/posts/default,United States,Military
formerspook,http://formerspook.blogspot.com/feeds/posts/default?alt=rss,Global,Military
militaryshoutout,https://www.militaryshoutout.com/blog-feed.xml,Global,Military
indianmilitary,http://www.indianmilitary.info/feeds/posts/default?alt=rss,"Chandigarh,  India",Military
reaperfeed,https://reaperfeed.com/feed,"Virginia, United States",Military
3x5leadership,https://3x5leadership.com/feed/,United States,Military
russiamil,https://russiamil.wordpress.com/feed/,Russian Federation,Military
informationdissemination,http://www.informationdissemination.net/feeds/posts/default?alt=rss,Global,Military
milfeed,https://milfeed.com/feed/,United States,Military
onemarinesview,https://www.onemarinesview.com/feed/,"Texas, United States",Military
news,https://news.goremilitary.com/feed/,"Newark,  Delaware, United States",Military
skulshrestha,https://skulshrestha.net/feed/,Global,Military
china-defense,http://china-defense.blogspot.com/feeds/posts/default,China,Military
bourbonandbattles,https://bourbonandbattles.com/feed,"New York, United States",Military
globalmjreform,http://globalmjreform.blogspot.com/feeds/posts/default,Global,Military
minnesotanationalguard,https://www.minnesotanationalguard.org/rss_feeds/ngmnlatestarticles.xml,"Saint Paul, Minnesota, United States",Military
dodlive,https://www.dodlive.mil/feed/,"Washington, District Of Columbia, United States",Military
philwalter1058,https://philwalter1058.com/writings/feed/,United States,Military
iaf,https://www.iaf.org.il/5045-en/IAF.aspx,Israel,Military
demolitionranchfansclub,https://demolitionranchfansclub.blogspot.com/feeds/posts/default,Global,Military
mywarjournals,https://mywarjournals.com/feed,Global,Military
feedburner,http://feeds.feedburner.com/EebenBarlowsMilitaryAndSecurityBlog,South Africa,Military
ww1,http://ww1.thisainthell.us/blog/?feed=rss2,"West Virginia, United States",Military
army,http://www.army.mil.ng/feed/,Nigeria,Military
centcom,https://www.centcom.mil/DesktopModules/ArticleCS/RSS.ashx?ContentType=1&Site=808&max=20/feed,"Tampa, Florida, United States",Military
nationalguard,https://www.nationalguard.mil/DesktopModules/ArticleCS/RSS.ashx?ContentType=1&Site=688&Category=11200&max=20/feed,United States,Military
themilitaryleader,https://www.themilitaryleader.com/feed,"Tacoma, Washington, United States",Military
sofrep,https://sofrep.com/feed,United States,Military
bouhammer,http://bouhammer.com/feed/,"New York, United States",Military
military,https://www.military.com/rss-feeds/content?type=blog&blog=defensetech,United States,Military
washingtonpost,http://feeds.washingtonpost.com/rss/rss_checkpoint,"Washington, District Of Columbia, United States",Military
feedburner,http://feeds.feedburner.com/rss/category/mil-home,Global,Military
feedburner,http://feeds.feedburner.com/militarydotcom/dailynews,United States,Military
