source,feed,location,type
techmeme,https://www.techmeme.com/feed.xml?x=1,"San Francisco, California, United States",Technology
feedburner,https://feeds.feedburner.com/TechCrunch/,"San Francisco, California, United States",Technology
technologyreview,https://www.technologyreview.com/topnews.rss,"Cambridge,  Massachusetts, United States",Technology
arstechnica,http://feeds.arstechnica.com/arstechnica/technology-lab,"New York, United States",Technology
readwrite,https://readwrite.com/feed/?x=1,"California, United States",Technology
feedburner,http://feeds.feedburner.com/venturebeat/SZYF,"San Francisco, California, United States",Technology
vox,https://www.vox.com/rss/recode/index.xml,"San Francisco, California, United States",Technology
megaphone,https://feeds.megaphone.fm/vergecast,"New York, United States",Technology
wired,https://www.wired.com/feed/rss,"San Francisco, California, United States",Technology
feedblitz,http://feeds.feedblitz.com/freetech4teachers,"Maine, United States",Technology
bbci,http://feeds.bbci.co.uk/news/technology/rss.xml,"London, England, United Kingdom",Technology
nytimes,http://rss.nytimes.com/services/xml/rss/nyt/Technology.xml,"New York, United States",Technology
medium,https://medium.com/feed/starshiptechnologies,"San Francisco, California, United States",Technology
cnet,https://www.cnet.com/rss/news/,"San Francisco, California, United States",Technology
washingtonpost,http://feeds.washingtonpost.com/rss/business/technology,"Washington, District Of Columbia, United States",Technology
feedburner,http://feeds.feedburner.com/typepad/alleyinsider/silicon_alley_insider,"New York, United States",Technology
reuters,http://feeds.reuters.com/reuters/technologyNews,"New York, United States",Technology
theverge,http://www.theverge.com/rss/frontpage,"New York, United States",Technology
howtogeek,http://feeds.howtogeek.com/HowToGeek,"Sterling, Virginia, United States",Technology
digitaltrends,https://www.digitaltrends.com/cool-tech/feed/,"Portland, Oregon, United States",Technology
huffingtonpost,http://www.huffingtonpost.com/feeds/verticals/technology/index.xml,Global,Technology
abcnews,http://feeds.abcnews.com/abcnews/technologyheadlines,"New York City, New York, United States",Technology
theatlantic,https://www.theatlantic.com/feed/channel/technology/,"Washington, District Of Columbia, United States",Technology
engineering,https://engineering.opensooq.com/feed/,Global,Technology
feedburner,http://feeds.feedburner.com/daily-express-tech,"London, England, United Kingdom",Technology
feedburner,http://feeds.feedburner.com/Makeuseof,United States,Technology
latimes,https://www.latimes.com/business/technology/rss2.0.xml,"Los Angeles, California, United States",Technology
mirror,http://www.mirror.co.uk/tech/rss.xml,"London, England, United Kingdom",Technology
metro,https://metro.co.uk/news/tech/feed/,United Kingdom,Technology
techspot,http://www.techspot.com/backend.xml,United States,Technology
feedburner,http://feeds.feedburner.com/oreilly/radar/atom,"Boston, Massachusetts, United States",Technology
feed,http://feed.androidauthority.com,United States,Technology
tech,http://tech.firstpost.com/feed,"Mumbai, Maharashtra,  India",Technology
fossbytes,https://fossbytes.com/feed/?x=1,India,Technology
imore,http://www.imore.com/feed,United States,Technology
thenextweb,https://thenextweb.com/section/tech/feed/,"Amsterdam, Noord-Holland, Netherlands",Technology
hackernoon,https://hackernoon.com/feed,"San Francisco & Colorado, United States",Technology
intellipaat,https://intellipaat.com/blog/feed/,India,Technology
macworld,http://www.macworld.com/index.rss,United States,Technology
computerworld,http://www.computerworld.com/index.rss,"Boston, England, United Kingdom",Technology
findlaw,http://feeds.findlaw.com/FLTechnologist,"Sunnyvale, California, United States",Technology
appleinsider,https://appleinsider.com/rss/news/,"Cupertino, California, United States",Technology
bgr,https://bgr.com/tech/feed/,"New York City, New York, United States",Technology
hackaday,https://hackaday.com/blog/feed/,Global,Technology
theregister,http://www.theregister.co.uk/headlines.atom,"London, England, United Kingdom",Technology
geekwire,https://www.geekwire.com/feed/,"Seattle, Washington, United States",Technology
blog,https://blog.wirecard.com/feed/,"Aschheim, Bayern,  Germany",Technology
extremetech,http://www.extremetech.com/feed,"New York, United States",Technology
feedburner,http://feeds.feedburner.com/techdirt/feed,Global,Technology
betanews,http://feeds.betanews.com/bn,Global,Technology
infoworld,http://www.infoworld.com/index.rss,"San Francisco, California, United States",Technology
techhive,http://www.techhive.com/index.rss,United States,Technology
droidviews,https://www.droidviews.com/feed/,India,Technology
feedburner,http://feeds.feedburner.com/Techeblog,"Los Angeles, California, United States",Technology
feedburner,http://feeds.feedburner.com/RasmussenTechnology,"Minnesota, United States",Technology
feedburner,https://feeds.feedburner.com/RedmondPie,Global,Technology
knowledgehut,https://www.knowledgehut.com/blog/feed,"Delaware, United States",Technology
mobilesyrup,https://mobilesyrup.com/feed/,Canada,Technology
feedburner,http://feeds.feedburner.com/thegadgetflow,"New York, United States",Technology
theinquirer,http://www.theinquirer.net/feeds/rss,"London, England, United Kingdom",Technology
campaignlive,http://www.campaignlive.co.uk/rss/brand/tech,"London, England, United Kingdom",Technology
feedburner,http://feeds.feedburner.com/TalkTechToMe-All,"North Carolina, United States",Technology
edsurge,https://www.edsurge.com/articles_rss,"Palo Alto, California, United States",Technology
geek,https://www.geek.com/feed/,United States,Technology
gigaom,https://gigaom.com/feed/,"Austin, Texas, United States",Technology
droid-life,http://www.droid-life.com/feed/,"Portland, Oregon, United States",Technology
justwebworld,https://www.justwebworld.com/feed,India,Technology
trickyenough,http://www.trickyenough.com/feed,Global,Technology
feedburner,http://feeds.feedburner.com/techgyd,"New Delhi, Delhi, India",Technology
twinztech,https://www.twinztech.com/feed/,"Hyderabad, Telangana, India",Technology
alicekeeler,https://alicekeeler.com/feed/,"Fresno, California, United States",Technology
scnsoft,https://www.scnsoft.com/atom,"Texas, United States",Technology
siliconangle,https://siliconangle.com/feed/,"Palo Alto, California, United States",Technology
itechhacks,https://itechhacks.com/feed/,"Himachal Pradesh, India",Technology
ilounge,https://www.ilounge.com/feed,"Irvine, California, United States",Technology
